ENVS 193DS HW 03
…
Use colors in your figure (that are not the default ggplot settings).

Make sure your axis labels are full, readable text (not just your column names).

my_data_clean <- my_data |> # starting with my personal data frame 
  clean_names() |> # simplifying my column names 
  mutate(
    shower_length_min = trimws(shower_length_min),  # Trim whitespace
    shower_length_min = na_if(shower_length_min, "n/a"), # Replace "n/a" with NA
    shower_length_min = as.numeric(shower_length_min) # Convert to numeric
  )
my_data_clean

# A tibble: 23 × 7
   date    shower_length_min work_day weather_degrees_f work_type gym_y_n time  
   <chr>               <dbl> <chr>                <dbl> <chr>     <chr>   <time>
 1 4/18/25              8.6  N                       60 n/a       N       07:30 
 2 4/19/25              7.3  N                       64 n/a       N       16:55 
 3 4/20/25              7.2  N                       60 n/a       N       18:30 
 4 4/22/25             10.5  Y                       65 CCBER     N       14:57 
 5 4/23/25             11.2  Y                       61 CCBER     N       13:30 
 6 4/24/25              6.2  Y                       60 DSP       Y       19:57 
 7 4/25/25              7.5  Y                       62 DSP       N       08:00 
 8 4/26/25              9.8  N                       58 n/a       Y       12:30 
 9 4/27/25              9.33 N                       60 n/a       N       10:15 
10 4/29/25              9.36 Y                       63 CCBER     N       12:29 
# ℹ 13 more rows
…
